<?xml version="1.0" encoding="UTF-8" standalone="no"?>
<!DOCTYPE svg PUBLIC "-//W3C//DTD SVG 1.1//EN" "http://www.w3.org/Graphics/SVG/1.1/DTD/svg11.dtd">
<svg version="1.1" id="Layer_1" xmlns="http://www.w3.org/2000/svg" xmlns:xlink="http://www.w3.org/1999/xlink" x="0px" y="0px" width="1280px" height="347px" viewBox="0 0 1280 347" enable-background="new 0 0 1280 347" xml:space="preserve">  <image id="image0" width="1280" height="347" x="0" y="0" href="data:image/png;base64,iVBORw0KGgoAAAANSUhEUgAABQAAAAFbCAYAAACK4iPQAAAABGdBTUEAALGPC/xhBQAAACBjSFJN AAB6JgAAgIQAAPoAAACA6AAAdTAAAOpgAAA6mAAAF3CculE8AAAABmJLR0QA/wD/AP+gvaeTAABf /UlEQVR42u3deXycVb348c95km60IKAguIGIuCAIpknZ1LrDRb1CM6yiKMqiggIqCF2maQERRQVF QVG8oCxpC4r+9LriBrZpBZFVZHFBRXZoS5fMc35/THqttTTTPM/MMzP5vF+veaVNz/Y9mSaZ75wl xBiRJEmSJEmS1J6SogcgSZIkSZIkqX5MAEqSJEmSJEltzASgJEmSJEmS1MZMAEqSJEmSJEltzASg JEmSJEmS1MZMAEqSJEmSJEltzASgJEmSJEmS1MZMAEqSJEmSJEltzASgJEmSJEmS1MZMAEqSJEmS JEltzASgJEmSJEmS1MZMAEqSJEmSJEltzASgJEmSJEmS1MZMAEqSJEmSJEltzASgJEmSJEmS1MZM AEqSJEmSJEltzASgJEmSJEmS1MZMAEqSJEmSJEltzASgJEmSJEmS1MZMAEqSJEmSJEltzASgJEmS JEmS1MZMAEqSJEmSJEltzASgJEmSJEmS1MZMAEqSJEmSJEltzASgJEmSJEmS1MZMAEqSJEmSJElt zASgJEmSJEmS1MZMAEqSJEmSJEltzASgJEmSJEmS1MZMAEqSJEmSJEltzASgJEmSJEmS1MZMAEqS JEmSJEltzASgJEmSJEmS1MY6ix6AJOXpyL7Xre/TzwMOBPYAxgGDQCh6rBsQhsbY7OPMGiPAaiBt 4zgB4lCccSPi7AQeBRYD3waeatRgL5n5s0bPjyRJkqQ6MwEoqd2dCMwBJhY9EGmE/gKUga8VPRBJ kiRJrcktwJLa2aeAczH5p9b2fOBi4IyiByJJkiSpNZkAlNSu3gJ8rOhBSDk6jepWdkmSJEnaKG4B ltSuzip6AFIdXED1TMDKCOp2A28CdqL68/8PwE+AXxcdlCRJkqT6MgEoqR29ANi96EFIdfBsYCrV xF2tJlDdQnzoev5tNrAAOBp4uOjgJEmSJNWHW4AltaMXFj0AqY6mbGT5X7L+5N8aBwKLgM2KDkyS JElSfZgAlNSOVhQ9AKmONtmIsl8HumootwNwZdGBSZIkSaoPE4CS2tHtwKqiByHVyT9qLPcm4MiN aHdfYI+ig5MkSZKUPxOAktrRE8BVRQ9CqpNazv8bw8hW9JWKDk6SJElS/kwASmpXH2dkN6VKzewX VFe4DuciYIsRtL990QFKkiRJyp8JQEnt6u/AG4CVRQ9EytH7aygzlY3b+rs2t85LkiRJbcgEoKR2 9nNgF6pbIV0NqFY3C/jDMGUCcHmGPpYUHaQkSZKk/HUWPQBJqrO7gEOA5wOvpHqDaoXqGyAxY9uB 6vfRUHSQOYtDMY0peiB10ujY0qHHF9i4G3zXdifQV0O5LwHbZBjrZQ2cF0mSJEkNYgJQ0mjxl6GH VIT3A+Mz1J9WQ5m9gGMy9DGd2m8YliRJktRCTABKklRfk6leyjFSc4BbhykTgPkZ+rgDOKPB8yJJ kiSpQTwDUJKk+lqQoe4fgJk1lDufbFt/Sw2dEUmSJEkNZQJQkqT6+QzV8ydHqreGMj3ABzP08Ung lkZOiiRJkqTGMgEoSVJ97AaclKH+p4Df11Duygx93Ad8onFTIkmSJKkIJgAlSaqPqzLUvQ84pYZy 5wDbZ+inlhWGkiRJklqcCUBJkvI3F3hxhvq1nMm3G/DRDH2cCyxp4JxIkiRJKogJQEmS8rUzcHqG +p8HFtdQLsutv/cBJzdwTiRJkiQVyASgJEn5mpeh7l+Bj9RQ7pPADhn6OaiREyJJkiSpWCYAJUnK z0zgpRnqH1xDmV2o7XzAp/MFYKCRkyJJkiSpWCYAJUnKx0uA2RnqXwBcX0O5/gx9/B04oZGTIkmS JKl4JgAlScpHlq2/fwM+VEO5MtVE40j1ArGBcyJJkiSpCZgAlCQpu9OBV2SofzDDJ+ZeBszK0MeF 1LbCUJIkSVKbMQEoSVI2LwLmZqj/VeBXNZS7KkMfDwAfaOSkSJIkSWoeJgAlScomy5l8DwHH1FDu VLKtMDwMSBs5KZIkSZKahwlASZJG7kRg9wz1a0nMvQg4K0MflwA/bey0SJIkSWomJgAlSRqZ5wPn Zqh/KfCjGspluVzkEeD9jZwUSZIkSc3HBKAkSSOTNTH3vhrKfRzYLUM/BwODDZwTSZIkSU3IBKAk SRvvBKAnQ/1DgVXDlHkhcHaGPi4DftzgeZEkSZLUhEwASpK0cZ4HfD5D/W8BP6yhXJZbfx8Djmrg nEiSJElqYiYAJUnaOFdkqPsE8N4ayh0PTM7Qz7sYfoWhJEmSpFHCBKAkSbU7Gtg7Q/0jgJXDlNkG OC9DHwuAaxs8L5IkSZKamAlASZJqszVwQYb6VwPfqaHc/Ax9LKOaZJQkSZKk/2MCUJKk2lwJdIyw 7lPUlpg7FtgrwxgPB5Y3eF4kSZIkNTkTgJIkDe89wNQM9Y+gujpvQ7YFvpShj6uBbzd2WiRJkiS1 AhOAkiRt2JbAhRnqf5fatvVmuVxkOfDuRk6KJEmSpNZhAlCSpA27HBgzwrorgHfWUO69wGsyjPG9 wJMNnhdJkiRJLcIEoCRJT++dwJsz1H8v8PgwZbKuMPwB1fMJJUmSJGm9TABKkrR+mwMXZ6j/A6qr B4dzFdA5wj5WAYc0dlokSZIktRoTgJIkrd/lwNgR1l0NHFZDuXcCb8gwxqMYfoWhJEmSpFHOBKAk Sf+pBOybof77gUeHKbM58NUMffwYuKyx0yJJkiSpFZkAlCTp300Cvp6h/nXAN2oodykwboR9VKht haEkSZIkmQCUJGkdlwATR1g3BQ6toVwJeGuGMR4NPNjYaZEkSZLUqkwASpL0L/8NTMtQ/zjgH8OU 2ZTaVgg+nZ8DX2vwvEiSJElqYSYAJUmqmkC2M/V+AVxUQ7lvDvU1EinV1YOSJEmSVDMTgJIkVV1K 9fy/kTqohjLTgLdl6OMDuPVXkiRJ0kYyAShJEuxPtq2/HwQeGKbMBLJdLnIDcGGD50WSJElSGzAB KEka7cZRXf03UguBC2oo93Wq5/+N1MGNnBRJkiRJ7cMEoCRptPsqsEWG+rUk5vatsdzTORH4SyMn RZIkSVL7MAEoSRrN3gi8M0P9k4E/DVNmHHBFhj4GgM81dlokSZIktRMTgJKk0aoTuDJD/d8C59ZQ 7uvAMzL0k+VsQkmSJEkyAShJGrUuBLbMUL+WxNy+wKEZ+jgZt/5KkiRJysgEoCRpNHoN8N4M9U8F 7humTCfZLhe5idpWGEqSJEnSBpkAlCSNNoFsW39vBs6uodyFwLMy9HNQIydFkiRJUvsyAShJGm2+ BGyToX6phjKvJdsKw+nAXY2cFEmSJEntywSgJGk02Rs4JkP9GcAfhimTAP0Z+rgVOKPB8yJJkiSp jZkAlCSNJlkSc3cAc2sodwGwVYZ+allhKEmSJEk1MwEoSRotPg9sm6F+Lbf+7kW2FYZ9wO2NnBRJ kiRJ7c8EoCRpNOgCTshQ/0zgthrKZblc5E5gViMnRZIkSdLoYAJQkjQaZNn6+0fg9BrKnQ88L0M/ vQ2dEUmSJEmjhglASVK7Owd4YYb6tWz97QE+lKGPM4BbGjkpkiRJkkYPE4CSpHa2O/DRDPXPBm6u odz8DH38EZjeyEmRJEmSNLqYAJQktbMFGereB5xaQ7nPkG3r70GNnBBJkiRJo48JQElSuzoT2D5D /VrO5NsNOClDH58FbmzclEiSJEkajUwASpLa0SuAT2So/3lgSQ3lrsrQx1/JljyUJEmSpJqYAJQk taMst/7+FfhIDeXOAF6coZ9aLheRJEmSpMxMAEqS2s1M4KUZ6tdyJt8uwGkZ+vg8sKiRkyJJkiRp 9DIBKElqJy8BZmeo/yXghhrKZbn19y/UtsJQkiRJknJhAlCS1E7mZaj7d+ADNZSbTbatv4c0dEYk SZIkjXomACVJ7eITVC//GKlaEnMvobrFeKQuAq5v5KRIkiRJkglASVI72BE4M0P9rwK/qKFclstF HgSOa+SkSJIkSRKYAJQktYesibljayh3GtXLP0bqICBt5KRIkiRJEpgAlCS1vo8Bu2WofwhQGabM jsAZGfr4OnBdQ2dFkiRJkoZ0Fj0ASZIyeAHwqQz1LwV+WkO5qzL08TBwdCMnRVJ9hRD+7e+l2T37 R+Krix7XqBDiP+bNXPy5oochSdK6YoxFD2GDTABKklpZlsTcY8D7ayh3MrB7hn4OAwYbOCeSGiwS X0fg5KLHMTqE3wOfK3oUkiS1GrcAS5Ja1QeBKRnqvxNYOUyZ7YBPZ+jjm8APGzwvkiRJkvRvTABK klrRc4EvZKh/BfC9GspluVzkceCoRk6KJEmSJK2PCUBJUivKsvX3ceA9NZT7MNCdoZ9DGX6FoSRJ kiTVnQlASVKrOQ7YK0P9dwIrhinzPLKdMXUV8P3GToskSZIkrZ8JQElSK9kGuCBD/QXAd2sod0WG PpYC723kpEiSJEnShpgAlCS1kssz1F0OvLuGckcDe2fo50hgWQPnRJIkSZI2yASgJKlVHAlMzVD/ PVRX523IVmRbYfgdYH5DZ0WSRpfhvo9LkqT1MAEoSWoFWwIXZaj/PWq7OKQf6BhhH08Bhzd4XiRp tHmw6AFIktSKTABKklrBFcCYEdZdRW2JuaOA12YY4xG4MkWS6irAkqLHIElSKzIBKElqdocDb8pQ /0jg8WHKbEW2FYbfxa2/klR3MeHHRY9BkqRWZAJQktTMNgcuzlD/f6nt4pBvMvKfiSuprv6TJNVR JN4+7/SBG4oehyRJrcgEoCSpmV0GjBth3dXAYTWUy7rC8P3AY42dFkkafQL0EYhFj0OSpFZkAlCS 1KwOBvbPUP/9wCPDlNmMbCsMfwJc2uB5kaTRJ4ZfzZux+MqihyFJUqsyAShJakabAl/PUP+nwDdq KHcFI19hOEg1SSlJqq80dnCiq/8kSRq5zqIHIEnSelwGTBhh3RQ4pIZyJWC/DGM8Bni4wfMiqRkF ngIeLXoYTWJzIOTZYIxcOH/6osVFByZJUiszAShJajb/Dbw9Q/0PAA8OU2YS2VYYXgd8rbHTIqlZ zZs5MAOYUfQ4ilaa27VPTJNf5NzsI2NjOrPo2CRJanVuAZYkNZMJwP9kqH89cGEN5f4HmDjCPiJw aIPnRZKaWumqUgdp8gVyXv0X4BOXl5c8VHR8kiS1OhOAkqRm8nWqF3OM1EE1lHkHcECGPo4D/tHA OZGk5nfHvcdFeGWeTYbAb3np9lkuapIkSUNMAEqSmsX+ZLtU40PA/cOU2YRst/b+mtpWGErSqFEq 77llJJRzbjbGGD7Sf1B/pej4JElqByYAJUnNYBzwrQz1fwN8sYZy36B6/t9IlRo5KZLUCmLH4CeB Z+baJnxj3sxFvyw6NkmS2oUJQElSM8i69beWxNz+QG+GPj4M/L2RkyJJze7ActeriLw352afiB3p aUXHJklSOzEBKEkq2pvIdqnGScBfhykzlmyXiywGzmvwvEhSc4uEJEk+B3Tk3PCsBacv8Q0XSZJy ZAJQklSkTrJt/b0R+GwN5b4CbJmhn1ouF5GkUWVaX8+7gFfn3OxtWz471nKkgyRJ2ggmACVJRfoy 8KwM9WtJzL0BeFeGPj4G3NvISZGkZvf2s/feNIR4Vt7thhCOv+iYJauLjk+SpHZjAlCSVJTXAkdl qP8J4I/DlBkDXJWhjxuBTzd4XiSp6Y1ZubIMbJtnmzFwZf+MRT8tOjZJktqRCUBJUhEC2RJzvwc+ WUO5rFt/pzVyUiSpFRw8Z4+XBcLxOTe7PIbBU4qOTZKkdmUCUJJUhC8BW2eof2ANZV4HvDtDH5/A rb+S9B8qsXIu1RXWOYpnLJh+45+Kjk2SpHZlAlCS1Gh7AcdkqD+T4bf+BrJdLnIrta0wlKRRpTS7 5wBg3zzbjHD3pHTSuUXHJklSOzMBKElqtCxbf28D5tRQ7gJgmwz9lBo6I5LUAkrn7jkhhviZvNtN YvjwJeXrVhQdnyRJ7cwEoCSpkc4Hnpuhfi2JuT2BYzP0MRu4vZGTIkmtIC5b/XHghXm2GeDa/lmL vld0bJIktTsTgJKkRukBPpSh/lyqKwCH05+hjzuAcgPnRJJawiFzu59PDB/LudmVSRo+WnRskiSN BiYAJUmNMi9D3buBGTWU+zzZVhj2NnRGJKlFDKZ8DpiYc7PnXFle9IeiY5MkaTQwAShJaoRPAc/P UL+WxFw3cEKGPs6ievmHJGktvbO730Btt6/XLMJfJkxY6WVLkiQ1iAlASVK97QZk2Tb2GeCmGspl 2fp7N3Ba46ZEklrD1PLUTgKfzbvdJMSTLv3YzcuKjk+SpNGis+gBSJLaXpbE3L1ALedDfQbYLkM/ bv2VpPXYKll+QoRdcm72J/0zFmc5FqKtHFLe/TmrOjt3TCq8CHghgWdCGE+ImxKZFIjjI2Ez4DFg FYGlwNKY8gSBe4jcS+CeVWl677XlJcuLjkdV5TLJzXTtFpKOnkDsAnaA8AKIzwQ2pfpafDnwRIQn AtxN5CYIN47pDL+4/PSFDxQdQ91EwoGzpzyXznSHpMKLYmB7IluFEMYR4qYhhomROA7YPBCfiISV BJ6MkWWBuALCQxD+lMZwd0ccvHtnlvy1XCYtOixtvKMv7Brz8IMdryRNd4Xw4gA7EdmGELYe+r8y ERg7VPxJYFmEZSHyKIE/E7kzEG9PO5LbVw1WbvN74IaFGGPRY5Ck3BzZ97qih6B/dxZwaob6XcBv hymzew1lNuTTZFuh2FYumfmzoocgNb0QQtFDaIhSuXubmHAnsFmOza4OabJbf3lhLZc6tZ1Dynts P5ikryHEqRC7iGFHYJMcu7gzwg1Eridw/S7pwO1tmRiJhGmzu2u+kTqSrBqc0Pn4d0759ZP1HFa5 THJLx5Q3QnoIkbcCW42wqZQYro9JuqBSGfz6NeWbHqvnuOttWrnrpSHp2AfSV0PoAl4EjM+xi5XA fQQWxxh+BfGX82cM3EZgVCU7Dj1jyrNXrU5rPqs1GZ8+3H/qkscbOcbSVaWO9I57JocQ9g0xvClW f9fP67mwAvglgf8NMf1h/8wlv29kbADNnl8zASiprZgAbCq7ADdnqP854MQayt0D1PwiYB33Zajb lkwASsMbLQnA3jndlxB5d55tRuK582cuPrno2BrlyPLU8cvCsv+OIf4XJK+FmGW1+kj8kxiuhtgf Xrb9df0H9VeKnpM8HH1h15hHHkhWbWy9CH8hsiCJnX395RseyWs8R5anjn8yWXY0cEKoJrfy9DDE uSF96oL+8q0bHXMRDjtrny1WrlrZGwL7Afsw8kRoFg9D+BUh/X6ojOnP8+vdrHr7evohbuyulkeA H3aEdPqVM5bcXa+xHVCe/IqOJLwbOAx4TiPmI8LdAb5c6Qxfv/q0RQ83pM8mz6+ZAJTUVkwANpU/ AC8eYd37gefVUG4ucHqGMe4BLGzwvDQ1E4DS8EZDAvDAuVP2SNL0eiDPYP8xLk1e8s3ywieKjq+u IuHAM7pfnaQcAZSAZxQ9pCEPxsg8Al+cP3OgpS+9GmkCcC13hLHpHplXP0XCtL6ed4UQ51Lb7y0j FgIf6Z8x8Pl69pFF6dw9J6RLB98WCIdB3BcYV/SY1rIK+EGEbyaTOq/tP+mGp4oeUD2MMAG4xmOV NL766vLiW/IaT7lMcmvH5LcS+UgkFPkibQXEqyok5149c9Hv6tlRs+fXPANQklQPZUae/AM4qIYy Lydb8u+LmPyTpP9QLpPcUknPJ+Sa/APCKe2c/DvinF0nPrVi3LHM4YM05+ryrULgOODYUl/3D2NI zp03feGPRts2ySEvjSuTk4GZI22gNKfnhXFO/AohvqERA04jf2/Y7GyEQ8p7bD8YKh+NSwePCLAZ zfl0Ggu8PcDb49LBJ3pnT/5G2lH5zILpN/6p6IE1kc07k3Am8PY8GivN6d73FjiLyG5FBwaMh/Cu DuI7e/smXxbSOKO/vOTPRQ+qCN4CLEnK20uBWRnqXwhcX0O5LAfI/w04vpGTIkmt4veh+ygCk3Nt NHL9vBmLLi06tnoolXee1Dun55Snnhp3L5FP05zJv7WFCG8hpv9bmtN947Q53W8sekDFzEJNbzau V2l2z/4xxiVAQ5J/AJF4f6P6qsW08pRde+d0XzaYVO4i8EHyPSu0njYjhOOTtPOuaXN6/ueA8uRX FD2gZhHh9aWrSh1Z2ijN6Xlhqa/7BzHy/SZJ/q0tgfCumCR39vZNPvtt5a48z19tCSYAJUl5uypD 3X8AH6ih3CzgZRn6KdGkb1FLUpEOO2ufLULgjJybraQxPb7dVpqVyjuP7Z3Tc0pMNrmXGD9JMeec ZRLhlSHyo96+nmsOntOV99l1zW6nI87ZteYLE9bo7ev5eAzxO8AWDR1tUvlrQ/t7GqU5k1/S29d9 bUjSm4gcTuvuKhwTYjyiIwk39/Z1f3vanClZdq60i4npbfeN6JzSqeWpnb1zuk+OMd4S4S1FBzKM 8RA+PjYJiw/o63ll0YNpJBOAkqQ8nUb18o+ROhiGva3wZVS3GI/UBdS2wlCSRp1Vq1bMJvdEVvzK gvKSLLe1N53S3K590mTCTUOJv2cVPZ7s4n9XYnJr7+ye8tTy1FZN6GyssGrFJi+ouXQk9PZ1fxbi 2TT+dXT6rK2SvzW4z3/ztnLXJtNmT54bY7gZeCv5ng9apAC8PcT05t7ZPeUjy1PzvJ245SQd7LSx dab1Td59q45lC4dWQLfMqrpAeFkHcWFpTveHiW3zfN4gE4CSpLy8CDKtGvkq8IsaymXZ+vt34ION nBRJahWlvq5dCOG4nJt9uNKZTC86try8o7zb5r2ze74c0+QXgZBlJXozGkeIs7ZKll1XKnfVnhhr YWmsbF1TwUiY1tf9ReAjBQ31nxcds2R1QX0zbXb328Ymya0hhNOpnqfXjsYT4qwnk2W3lOZ071v0 YIqSxo1LAPb2dX8gEH4TI68qeuwjNC5GPtc7d/I3j76wa0zRg6k3E4CSpLxkScw9BBxTQ7nTqF7+ MVKHNXRGJKmFRJLzyXk7XyRMv/q0RQ8XHVseDpzb/ZrOZMxthHgM7bP66T9E2DsmyY2l2T0HFD2W uguxptWuvX09nxm6QKUYkUK2/x5Znjq+d073RSHwnQDbFxZ/AwV4UYx8v3f25PNGQ0LoP+KvMQH4 tnLXJr193ZdSvVSv9ZPCMRz6yAPJt9v9XEATgJKkPHwUMh30eyjDb/3dgWwrDC8BrmvkpEhSq+jt m3wI8No82wyB3yYv3e4rRceWh2l93SckKT8Gti16LA2yZQxxfqmv+9SiB1JfYdgEYO+cyccQ4onF DjM0/AKQ0pyeFy7rWPZrIu8vNPaihHD8I/9IrivN3fO5RQ+lsWHzkuHKTJsz5cXjkuQ3wDuLHm/O 9hufJD887Kx9Gnu+ZwOZAJQkZbU9cE6G+pcCP66hXH+GPh4Fjm7gnEhSy6hehBCyfB9fnxgDx/cf 1F8pOr4sSufuOaG3r/vSAJ8HRttqoBDhrN7ZPee26/lYkbjBLcC9fT2vJobzix4nMTZ0BWDvnJ63 xhiXtPC2znwE9orp4JLeOZOnFj2URolseAVgqa9nzxDThWQ787tpRdh71eqV397vvB3HFT2WejAB KEnKKmti7n01lDsJMv0SejBQ2Nk5ktTMnnpq/GnA8/JtNV46b/pAS1+4dGi561lx6eAvab9VLhsn xBN753T/T1tuh0yffgVg9RzEOI9mSPwmNGwFYKmv+2hi/DaNvuW4eT2bGH5YmjO5t+iBNMjzSufu OWF9/1CaPflNkfgj2v+58eqJj23x1XZ848MEoCQpixOAyRnqHwasGqbM9sBnMvRxGfCjxk6LJLWG UvlVO0I8OedmnwhpOKXo2LIonbn7Vqs7wk+ArqLH0iTe+fADyUVt94I4rP/G6/3O23FcTJJrgNou Can3MNPGrADsndNzfIQvY55gXWNiDJcPHZXQ7pL0ifTF635y2uzJ02II1wITix5gg7yzd+7kmUUP Im+j5Yp3SVL+nkN1S9RIXQX8oIZyV2bo41HgqEZOiiS1kph0fBbIdatTIMzuLy/6R9GxjdQB5b22 joOrf0wxW9weJfCnEPlLJN5PDI8TWE0IS4lxDJFJwKQQ2AbYMcKONOgFeYAjp83p/vN8BmYVMC91 imn9l4BMfGyL6cDuRY/v/yRJ3VcAluZM/liM8VNFh9rEOiFcNq2vu3P+zIHLih5MPSUdlZ2Am9f8 fdrsnneHEC8GOooeW0PFMKs0Z/KN/TMWf6fooeTFBKAkaaSuyFD3SeA9NZQ7HujJ0M8RDL/CUJJG pdLsnv0j8a05N3vbFs+uFH9m2ggdUN5r645k9U+BnRvU5a3A90OIC6nERf3lJX/e2AYOnrPHywZj +lpCnBpi2B/ipHoNNsDM0uyeP/fPWnRxg+anriLhP1b4HdDX80qITbWCNanU9xbg3r7uj8ZIkcm/ x4ncReCPEZ4ghscDcQVJWEbKBEI6IRI2ByaFyE4EXgw8o4BxdgS4ZNrsyZX5sxZfXuB81VVc6ybg 0pzJb4+xbsm/JyM8nMDjEZ4AHg8wJlbflNoU2AYo8hKWEGO48NBy1/WXl5c8VOA4cmMCUJI0EkcD r85Q/whg+TBlngucl6GPq4DvNXheJKkl7HfejuPiY/GzuTccOeGiY5a05Jmr+52347iOR1dfTZ2T fxHuC8SvxNDRP3/GwruytnfljN/cDtwOfPmIc3aduGL52AMhvC8GXlOX8Yf45VJfz239MxfdUM95 apB/WwE4tTy1s4NlF9MM5/6tZezEFXVbAThtTs87iPHsBoaThsBNMeVngfCzwdg5cHX5+n9ubCMH lPfauqNjsIeU15OkbyCGXaAhW9Q7Qghfm9bXdc/8mUsWNnDeGieEnQB653bvFVOuIJ/k3+PATwnc COHGtBJuWlBeOGxi+23lrk3G0rkjSWUyIZkaYnwduZ9Zu0HbrE6SL1I9T7zlhRhj0WOQpNwc2fe6 oocwGmwL/JWRnw8zH6jlIOXrgT1H2MdSquf2PNXw2Wlxl8z8WdFDkJpeCK1/DFqpr/vUCGfl2mig f96MgYOKjm2kevt6Lob43vr1EBbGwCeTl2x3bSNuRy7N7donpmEGhDfn3XaEu1ePG7v7d0759ZP1 jmN9jr6wa8wjDyR5rPCvvCIdGFsukwL09vV8HBqaDKvFQ/NmDmyVvZn/dEBfzys74Ff1XDW6lrsC fI2US/rLA7kfEVAqd70gho73EuJRNCZB9Pc0TXpqSWI1Sm9fTz/EPC4ruaEjdBxViZVfAVuOvJmw NBK/E2K8alKc9L+XlK9bkXlkkdA7p2cfQnwPMZQa9NwF4qHzZi4edvdTs+fXXAEoSdpYVzDy5N8y 4N01lDuWkSf/AA7H5J8krVdp7p7PjWnldMj1hcryUEk/WnRsI9XbN/kjdUz+/TkQPtE/Y9HlBCIs akhM/dOX/Ap4y7TZ3W8LgS8AL8ir7QAvGrty9edo/XN2O+6ka0tY8tCBZ3RtSyU23/mGgbq8M3dA ea+tOxj8dr0TKAEGiPH0/pmLf1x9/tfH0Pb5cumq0hzuvPeAGMNc4CV1DG3bJEmvKZ2756v7T7qh 3X7nfHklVn7AyJN/D4UQPzV+/MoLLv3YzctyHVkgzmPRL4FfHlru+vjqkJxK4APAhKxND9PxuUec s+u1ucfTYN7uI0naGEdBpi1F76KaBNyQZwMXZOjjC0DbHNYrSXmLcfU5eb/oDyGcOZLz65pBaU7P 6yGcU5fGA18P6fKd+2cu+lY9kx8bMn/WwLUhXb5zrB7in6P43tLsngOKiClPg3RuDZAMJqcDm+TQ 5ONULzmbG+A9hPi6QDI5punLQogvDSSTibyRwDRgBnBVCNzC+s8s/muoVE7LPehI6EhWXw5xu7pN LNwbIof0zxiY0j9r8Y8a9fzvP6i/0j9j8byH0omviITjgAfr2F1XXFr5QiPiarBnMLI3DB4NIUxf NW7sDv0zFp9T72TZ5eUlD82bNfDRNE12CvDjOs/Jtk89NfbDde6j7twCLKmttPEW4EB11fY4YCzV s2nWPNZ8bu2PY9bzubFDbSTrtNE59DEOPcI6/UZgxVCZTzDy1ePfA2o5bP4nwOtH2MdSYF+qt/+u GWe6VmzpWh/X/Lmy1sd0PQ+A1UNttz23AEvDa+UtwAfO7X5NknIdOZ6VFeHuTdOJr8hle1eDvf3s vTcdu3LVLeS4Om7IsgjvnT9z4KqiY1xb75zJxxDDeVR/D8jDX1em6UuuLS8Z7lzfXOW4BZgAUyvJ 4H1J2vmHDPPyBMRvEbgyvOSFvxzJFu+p5amdW3UsfVFKeH5IwxYQH1kZ0xvqMbe9fd0fAL6Yd7v/ J/CNVWPHHl/UFvG1lcrd25BwSYS31KuPGMO+82ct+t+iY81xC/BIZuF7IQ3vq8f27lqUyyS3dkw+ OcZwJvXb6fp4pTO86OrTFj38tLPQ5Pk1twBLUvMLVH8hnTD02GToMXHosSkwaejjZuv5uPa/TRz6 +0TqvlT+36wE3llDuXcx8uQfQ/P0Y2D8Wp9Lh/pfMfRYvtZj2dBj6dBj7T8/OfTxqaE/PwzcD/yd nPfNSVIjlK4qdcQ77z0f8s1ghhA+0orJP4CxK1d+CkLeyb+HQhL3nzd9cWP2+m6EeTMWX9g7Z8q9 xPTb/PvPypF63rgkOQmYW3RsIxbiVkk65l0QR5L8ezgQzhybhq9+s7zwieqnFo9oGNeVrxsE7hx6 1M0h5T22HyQ9u06/yiwLkaP6Zw5cWc8YNkZ/eeAfRPbrndt9EpGzqcNttiHEi95+9t6vaIaEZwGe jJGT589a/JUiB1E9x3PxOdPm9NwVYryC6uKHvD2jY3X8BNCyx124BViSml/Cv75fr1mpNkh1Vdoq qkmtp6gmr56guvXkUeAR4CGqWx8eAP429Pgr8Bfgz8A/h+qspL5JrfcBjw1TZkvgqxn7Gct/vqBJ qCZR13xc81ifdVcKxqG5jlSTrtsBL8Q30CS1oPTOe48lhl3zbTV+b96MRd8tOraRGNr6e0zOzf49 hLhPfxMm/9aYN2PhD0PgAKq/P+QgnFIqd29TdFwjFWPYG+K7NrYaMVwY0s6d+mcuOvdfyb8mFwmV pPKVOp3791BI4uv7ZzVP8u//BOK8GQOfiTEeTPV33ry9YMyKVc12eUzdReLtHSHdff6sgUKTf2ub P2PRNTGG/ya372/rCHygVN4zw8UoxTIBKEnNb03yakOPjnUeaz6/vrprJ8HW/ly9/BC4rIZyV1Hd ZpynNVt3l631WL7WxzWPp4Yea1YJrhx6rOLfE61PUn1Hcas6z5kk5erQctezQgx9OTe7MqTpR4qO bSTeVu7aJMb4VfL9Xv54hbBf/4zFdV3BlYf+GQM/IPK+fFqLk2IHeT+3GumDbNwbew8TwtvnzVp0 bH/5hkeKHvzG6O3rPjLCG/NuN8JfYpq+upkT3wDzZy2eH2J8G8OfR73RQuDYA/sm7110jA3000o6 uNeVM5bcXfRA1jV/1qL/DXBcnZqfEJPBOt4WX18mACWp+a2dtFs74bd24u/pPr++cusmCIdbFZfF IHBIDeWOAN6Qc9/rruRbc8bfumf9Vdb5t/X9fe0zA1dQfaGQx9YpSWqIVUlyBiO/0fFphM/0l3/7 x6JjG4nxSXIC1RXdeVlNiO+4euai3xUdW63mzRr4JsRP5dJY5N2HlHd/TtExjdDGvPl4Twhx71Zc 9Xpkeer4GJhdh6YfB/abX15yR9Ex1qJ/1uIfhRiO4F/nPOcldFTPn2t/ga9v+ex032vKNz1W9FCe Tv/MgUuI8fw6NX9cudyaubSWHLQkjSLrW6n3dCv71l0NuL4E4foe9Ur+QXXr76PDlNmc7Ft/12ft 7bzDPdZN/D1donBNEnA1+a9WlKS6KPVN6QrktdqrKsJfJkxY0ZIvdt9R3m3zCB/PtdEQZsybsfi6 omPbWA+lk04njvDQun83dnXo+EDR8dRThD+kHek+rbDCc32e7Fh6XIDn59zs6hjonT9z4Nai49sY /bMWXU0Iud+uHAOv6Z0z5c1Fx1dn582bMfDei45ZsrrogQxny23iyYR4cx2a3uHW0LNf0fGNhAlA SWpu69uuO9wW4HVXAybDfG7tMwbz9DPgGzWUu5T8biNcW+Q/k4DrJvjWXe23vlV/az637k3Ba74+ ktS8IiGSnk/+3+c/eunHbs59G10jdCZjPwZskWOTP3hFZdE5Rcc1EteVrxuMMTmK6htbmYQQjimd u2cjLxhrpD+PSXjjgtOX/L3ogYzE28/ee9MQwyfybjeGeMr8GQM/Ljq+kZg3Y9HZBPpzbzhN5xDb 8/fDCBfNmzHwkaLHUauLjlmyOobkKKo7kvKdi5DWa4txXZkAlKTmtu4W3fWt8tvQtuDhVgDWa/tv Sm1bf3uBt9Zp7tZd/bfm7+tb5be+5N/6EoRxnfYkqan1zuk5Atgz52Z/On/mwFVFxzYSh54x5dkQ P5xjk0+mafL+6g2UrWl+eeHNRM7LoalnxaWVw4uOpw6Wh5T/vmL6wF+KHshIjV216iNUzy/OTwy/ 2qWy+PNFx5bFmEr6AaoX5eUn0FOaO/ltRceWv/g/u6QDxxFa6/ff+dMXLY7EPL6/rSO8uRUvAzEB KEnNrdbLP54uEbihcuvejJun46jeMLwhE6lthWAWT7fld5ANb/F9uvMC131IUtM6vDxlM4h530y5 OsIJRcc24sEPpidS/fmTixjirAXlhX8tOq6swpjBsyEszT4h8f1Fx5K3CMf0lwduKnocI1U6d88J RPJMegMsj0l4bysnvgEuLy95iBjzvgkcYsj3iIHCxe+Fl76wZb/eaWdyJtWL/PI0Jg2Vlkv0mgCU pOZVy+2/T3fBx/q2Am/oLME8/Rq4qIZylwGb1HH+IuvfBvx05/+t789PlwSEf60IlKSmtDKkM4Ft cm72i6123tca+5234zgCud3eGIm3P1yZVK9D5huq/7QbH4zEL2RuKNBdKne9oOh48hIDV86fOXBZ 0ePI5MnVvcAzc20z8pn5MxbeVXRoeZg3a/G3gVwvdYmw97S+7p2Lji0nd4ax8fD+g/orRQ9kpK4+ bdHDEb6Yd7shxAOLjm1jmQCUpOa2bsJuuK2+61v1t75/W7fdPJVqKPOOoUc9bezFH2v+PDhMnTV/ XlXn8UvSiB08Z4+XEXJfqfdAGJuWi45tpCY+ukUveW6DjMy5rnxd7mdLFSVJ0y+RfXV7oCM5oOhY cvJQUuls+YtNIuHYnJt8JIxLP1N0XHmqEKaT986OSDushn0ipuk7+k9d8njRA8lqbJp+BliRc7Nv fvvZe29adGwbwwSgJDWvSDUZ1UH1koy1E3id/Cupt+bPY4b+PGadx/o+t+bzY8n3Z8EJwHAHZE8A /qdB81dLEnDdxN66l32snRxckzBdgVuAJTWxSqx8npxvK48xnNLaLwRzTYTctktcfGXREeWpv7zk z8D/Zm0nRqYVHUseYuS0/vINjxQ9jiymlafsSmCvXBsN4VOt/X3gP109c9HvIlyRZ5shcMSR5anj i44tgxhCPGJ+eckdRQ8kD5eXlzwEXJNzs+PHrli9b9GxbQwTgJLU3FYDS4c+dgLjqSbQNgEmAZsC mwGbU73RcEvgWcDWQ49tgG2B5wDPBZ439PGZQ/U7cxzrIqCWrVBfHxp3vY0fmo818W87NB9bD83R lkOPZwzN4SSq50JNAMZRTY6uSZSuSaKmVM8QyfsdREnKTWl2zwHAm3Ju9ob5Mxc14s2buqgmQuI+ ebUXI59r1fOwNiTEXM7m3at62UoLC/HmXeLAxUUPI3MYSZr3+XZPhMqy3LdSNoOE9JM5N7nlk8my 3qLjyuCJ/hmLv1P0IPIUY7gk90ZDnFp0XBsjzxd+kqT6WEX1Qo0nqCan1qz4W3tl37orADuf5rGm XrJWuQg8CJwDvCzDOGvZ+vtfwMEZ+vg18NBa42YojoT/PI9vFdUVlKuBlUOPFUOP1Wv9fTnw1FqP lWv9ecVaZZ4c+hqszjB+Saqr0rl7TkiXDp6b881OaSA5vtVuf/w3SXpojq09nsTllxcdUl2MS3/A qmQ12VaPdqwejK8B+osOZ6RiSl+rJ3hLV5U64h33Zfmd6z/EyDfnlW/NfllME+qfueT3vbO7r89z xWSAw6meea0mkLxsux/HO+67n+piiHzk+MZSI5gAlKTWsSYZVQ8vBJ6fof6JwJ+HKTMO+FaGPgaA lvohK0mNFpet/nggbJ9vo+Er/bMWLik6tiwC5HdbY+Sy/nZNgpy65PHevu5fAq/P1lKcQqsmAEO8 ef6MxQuYVfRAsqncce8eCSHXyz/SEC4sOq56ioSLAjHPLdNTS+WdJ7Xr94tW039Qf6V3ds93CTne /BzDK95R3m3za8o3PVZ0fLVwC7AkaQywmOoW2JH4LfC5GspdTHW77Ui18jYKSaq7Q8p7bE8Mp+Tc 7COVMZxedGxZHDyn60VAbjdyho4017PCmk/8SfY2wpSioxjxyGFOS692HZLEsH+e7QUYuHrmot8V HVc9JZt2XAUhz2TdeMLEvI9jUAYhh3NO15F0dHTme85mHZkAlCR9hepZeCNVS2LujVS3QYzUxxh+ haEkjWqDSeUzVI+KyE0ITL/6tEUPFx1bFpUY8lv9Bw/sPLjk+qJjqqvQsTh7G/FVR1/YleslNA3y +50rixcUPYhcJDHXBGAkXlN0SPXWf9INT0H8UZ5txiTm+f1HWY2r/JScj/MJMdm76LBqZQJQkka3 1wLvzlD/NODeYcp0AN/M0MfvgE83eF4kqaVMm9P9RuDAnJu9kZdsf1HRsWWXXwIwwrdb/Wy44VQ6 Yh7bvTd56O/sUnQsGytGzm+Hr+8hc7ufTwy75tlmJHy76LgaIRK/m3OD/1Uum3dpFv2nLnmcyEC+ rcZXFR1XrXwiStLoFYAs25huAc6qodyFVG/eHSm3/krSBhx9YdeYEPl8zs3GlHh8/0H9laLjy6JU 3nks5Hiofww/Ljqmehta8fmPrO2EEF5SdCwb6Yl2udylUglvzrO9CHfPnzlwa9FxNUKShv8HuSaB n31rMmX3ouPSWgKL8mwuwkuLDqlWJgAlafS6ANgmQ/2DaijzWuCoDH18AvhjIydFklrNow90HA+8 PM82YwiXLZi5+NdFx5ZZMmkXYHxOrcUxneEXRYfUCAH+krWNJITtio5jY8TIN9vlsoYY0sl5tjca Et9r9JcH/kGIt+TaaEh7io5La4lkP+ZgLQFe8LZy1yZFh1ULE4CSNDrtDRybof4s4PZhyiRkuwHw 98AnGzwvktRSDj1jyrMjcWbOzT45prL61KJjy0W+L7zvvPz0hQ8UHVKDZD53N428oOggNkqIXyl6 CLmFQujKt8W4sOiYGipNbsizuRhDrglZZdMRQ85bgEnGk+xUdFw1DbToAUiSCpElMXc70FdDuS8D W2XoZ1pDZ0SSWtDqND2bbDes/6fA7CvKN/6t6NjykOcL7xhyf9HYtNLIP7O20WIrAG+YP3PxjUUP Ig9HX9g1JpLv+Ysx5y2TzS5CrglAcl6RqWyunLXoLuDJPNtMQ3xZ0XHVwgSgJI0+XwC2zVC/lsTc XsD7M/RRBu5q4JxIUss5cO6UPYi8K882I/H2LbdOzys6thwj6s6rpRDJd1tgEwuBZVnbiMSWSQDG yE1FjyEvDz7Q8XLy2/YO8OQu6cBwuz7aSmfMOQEYw8tbZYvoqBCIAe7Jt8mkJc48NQEoSaPLFOCD GerPZfitv5DtcpE/ALMbOSmS1GrKZZKkkp5P9UKn/IRwwkXHLFlddHx5mFqe2gnktiojhnTUJAAj LM+hmSznDGuEOmK+N5KGyK3tcDPyxhhaIZbH/4E1OsckwYtAmkuuZ4zHJH1e0QHVorPoAUiSGuqq DHXvAmbUUO5zwPMz9OOtv5I0jN+H7qNCIN+D/mH+vBkDbXPY/1Y8+ZxIktvrnUA4clpf938XHVcj JLB7zN6MK56KEOJL83xfICbcXXRIDReIoY+7IrwyryYTkpcBrX+xUpuIxLvz/H+SxLB10THVwgSg JI0en4FMB3LXcuvvZODDGfo4k+rlH5Kkp3HYWftssWr1yjNybnY5aXpS0bHlKSYd20EOaaz/a5BS vsstm1dOsza+XCYZbavHChd4fp5Pe9KQ60qpVhHhTnJMAEZiljfHlbfAPfn+eGiNBKBbgCVpdNgd yPLC7tNQ0/k48zP08Ufg9AbOiSS1pJWrV/WR7ZKl9Tmrv7wk882vzaSVzqBrU2EJXXmeRacahBhy vn05jtYzmf+Qc3utdSt2m4skud7oHonPLjqmWpgAlKTRIUti7s/Ax2oodw7Zfrlx668kDaPU17VL IB6bc7P3TEonfrro2PIWiL7gLtgktwE3XArPzbXBENrqjYGaw47hvlzby3Y8jnIWIg/n2h64AlCS 1BTmAi/MUL9UQ5ndgI9m6OPTwO8aOCeS1JIiyfnkfIxPjHzkkvJ1K4qOLW8xhpY4lL2dDZoAbKhy mSTknACMaeXBouMqQkr8Z85N+oZEEwlpyDUBCGzy9rP33rTouIZjAlCS2tsuZNtWex6wqIZy/Rn6 +BO1rTCUpFGtt2/yIcBr82wzEP7f/FkD1xYdWz2EQNO/GGt3HZ1JnqfRaRh3sPs2wJg82xwLDxUd VyFCmncC8HnEnG9t14h1jsl3BSDAuNXpZkXHNRwTgJLU3uZlqPsXarvQ40xgxwz91LLCUJJGtSPO 2XUihHNybnZlGsJHio6tjlx9VrBKMth2K0ub2Uo6tsy5ycpLWPJI0XEVIk3yXvk44YhP7+r3pCYx uHrpo3m3mQ4Ojis6ruGYAJSk9jUH2ClD/Vpu/X0F8IkMfZwHDDRyUiSpFT311PjTgHy3tEbOnT9j YTsf8D+h6AGMcpUHVz0j9xfZenohCXk/5x8drbc4r54wNvetzytWd5gAbBL95VtXQb7P7c6ODhOA kqRCvBSYnqH+l4Df1FAuywrD+6lthaEkjWql8qt2hHhyzs3+dcImK88oOrY688V2sf5+Xfm6waIH Maok+Sa9IzxVdEhFeeKpMfnHvirxTYnmsirPxtJKxQSgJKkQWW79/SfwgRrKzQBekqGfQxo6I5LU omKSfA7I9YVFiHz00o/dvKzo2OopmAAsmiv8GyxUcl8BmGuCpJUMJa8ruTbakfvXR9nk+/zujGOL Dmg4JgAlqf18Anh5hvq1JOZeDPRl6ONC4FeNnBRJakWl2T37Q9g/52av6581cGXRsdVb9MD9QsUY s1wQppHIeQUgxFGbAByyMs/G0uibEk0m1+d3hTC+6ICGYwJQktrLi6heyjFSXwd+VkO5LCsM/0Ft KwwlaVTb77wdx8UQP5tzs4OVNB5fdGyNEbyAohhpJHxhl7i47ZPMTSdNc00AhhByTYC1oFzjj65K bjar82wsRJp+BWBn0QOQJOUqy5l8DwFH11DuNGCXDP0cRM6H7kpSO5r02BYnxuqK69zEyBevLi++ pejYGiLEHM/wCgsJXF10SM0sEFekafznmNh5wxXl39yX5Z1CjUwCnTHPBmPOW2BbT65nWHYQzL80 lzF5NhZi8yfMfQJKUvv4GLBbhvqHMPwvOjsCWQ6N/yrwy8ZOiyS1ntLcPZ8b08rpkOvL+X9W4upy 0bE1SoAV+c1eeue8GYvPLjomaYMSnsr1W0aIuSZIWlCuZ69WYHnRAenf5Pr1jUnzX5rjFmBJag/b AZ/KUP9S4Cc1lMtyns9DwLGNnBRJalUxHfw0xEn5Nsqp15Rveqzo2Bol3xtMw6ZFxyMNK03yTUDE 0PS3mtZZvpcvmQBsNvk+v9M8V53XhwlASWoPWbb+PgocVUO5k8i2wvBw8r5NTZLaUGlu1z7Awbk2 Gln8ijjwjaJja6iQXwIwgAlANb/8VyA1/ZlmdZZv/GnzrxAbNaqXROW7wrUFvr4mACWp9Z0ATM5Q /3CGPwT3ecBnMvTxLeCHDZ4XSWo5patKHTGGL0KuN9imsSMcVy6PsvNXY36rMWJks6LDkYYVc09A jNoVgKXyzmPJ9/swcUza9Ami0aL02T3Hk/PXdwyDTX/xlAlASWptzwM+n6H+lcD3ayiXZYXh48B7 GzkpktSq0jvvPZYYds210cDF86cvWlx0bI0XHsqrpRjYvOhopGHlvwVx1K587WR87kn/dHXFBGCT 6Fg++Kzc22Ts0qLjGo4JQElqbVdlqPsk8J4ayn0ImJKhn0OApr8VS5KKdmi561khhr6cm31kTCU9 rejYihDgLzm29byhLWNS00o7kmU5N7npfuftOCpXAQ7SuXXOTcatt+3I++ujEaqkSd5f32XfLC98 oui4hmMCUJJa17HAnhnqH8HwB6Q/Fzg/Qx9XAD9o8LxIUkta3ZGcCWyZc7MzLi8vyW0lXCuJMeaW AAQ2OXR21zOLjknakFWVwfvzbnPSE1vlvlKqFcSOSt4JogcuOmbJcEfuqEFizP3r+9eiY6qFCUBJ ak1bAxdkqP/tocdwrszQx5O49VeSanJguetVxHy/Z4bALQ+lEy8qOraiVGJ+KwABBpPO7YqOSdqQ a8tLlgOP5Nro4OBWRcdVhBhDrgmiPFckKwchyfV5HYh/KzqkWpgAlKTWdCUjP7h2OdXVf8M5Btg7 wxjfxfArDCVJkZAkyReAjnxbTY+7rnzdYNHhFaVzfK4rAIkhNQGo5hdiriuRYkfuWyVbQkLMNe5o ArCphMDz82wvhmACUJJUF0cBUzPUfzfV1Xkb8myyrTC8GrimobMiSS2qd07PEWQ70mF9vtk/fcmv io6tSP2nLnkcyPNMppcUHZM0rJxXvgbSFxUdUhEi4cW5tpfz10XZxJjulHODuW+/rwcTgJLUWrYG LsxQ/zvUdqPvlYz8Z8RT1LbCUJJGvcPLUzaDeHbOzT7ZmQ6eUnRsTSHE+3Jsbfeiw5GGFZN8VwCm jMoEIJBrgigkJgCbSYgh3wRg4J6iY6qFCUBJai2XM/ItYiuoLTH3HuC1Gcb4LsBbziSpBitDOhPY Judm+64o39gS25HqLcbw2/za4lVFxyMNJ+Sb9IZArivhWki+CSK4t+iA9C8x5Pv1TUPH74qOqRYm ACWpdbwTeH2G+kcx/FaoZ5JtheH/o7YVhpI06h08Z4+XETgh52bvCOny84qOrVkkxCV5tRVgh9In u55RdEzShsQY805E7Fh0TI1WOnfPCUCuZ34Gwo1Fx6WqA8/o2hbYMscm047BpbcUHVctTABKUmvY HLg4Q/0fA9+qodxlwJgR9rGKapJSklSDSqx8npF/z12vEOMJ/eVbVxUdW/NIcksAAiFdnXQXHZG0 IWM6O3Jb9TrkJaXyzpOKjquRKktXv4p8L2V6uH/GIlcANomOwY49cm7y7v7yrUuLjqsWJgAlqTVc BowdYd1B4LAayh0K7JthjEcBjzZ4XiSpJZVm9xwAvCnPNgPM75+1+EdFx9ZMVqSV31H9OZiLEHlL 0TFJG3L56QsfAPI8B7CDZJOuouNqpI7AXjk3OVB0TPqXNO9LtwI3FR1TrUwASlLzOxjYP0P9o4EH hymzOfD1DH38L9UkpSRpGKVz95yQhnhuzs0+VUkGTy46tmZzbXnJcuD2HJvcr+iYpBrkuwowxJ6i A2qkGEOuK8RizO8oAmUXQsz16xsILXH+H5gAlKRmtynZEnM/rbH+5cC4EfaxmurqQUlSDeKy1R8P sH2ebQb45ILpN/6p6Nia1MIc29q5VO56QdEBSRsUYq4JwLwTYk0tEsh7hViSLC46LFW9rdy1CTA5 10ZD5edFx1UrE4CS1NwuAyaMsG4KHFJDuYPJtvX3/bj1V5Jqckh5j+2J4ZScm71nYjrxU0XH1qxC DP8v1waT8PaiY5I2JBJ+nXOTbyyVdx7pUTQtZdqcybsB2+bYZJpWOq8vOi5Vje3oeDMjf221HmHp Flvl+iZTXZkAlKTmdQCQ5UXGsQy/9XcS8LUMfVwHfKOx0yJJrWswqXyGXF98QAjxxEvK160oOrZm NX6TFT8EcpufSDiy6JikDUkqy38BPJljk5ulYeLrio6rERLC23JtMPKbq8vX/7PouFQViO/Itz1+ cdExS1YXHVetTABKUnOaCFyaof6vga/UUO4SYJMR9hGp7XIRSRLQO7v7DcCBOTf7o/4Zi79TdGzN 7NKP3bwM+FmOTXaVyt27FR2X9HT6y7euCsSf5Ntq/O+i42qQt+baWsJ3iw5IVaWrSh3ETOeqr0/O /8/qywSgJDWnS6gmAUfq4BrKvA2YlqGPDwJ/b+CcSFLLOvrCrjEEzsu52VUdafhQ0bG1ghC4Ns/2 YojvLTomaUMiyffybC8EDjj6wq4xRcdVT4eU99g+Qq43HoeYmgBsFrf/aV/gWXk2OWgCUJKU0VuB 3gz1TwDuH6bMeOCbGfq4HvhSg+dFklrWow90HA+8PNdGI5+9srzoD0XH1go6At+lunI9HyG8+7Cz 9tmi6Likp9OZrv5/5Pmch20e/Wdo61WAq8Pg+8gxRxLhvv6ZS35fdFyqiiEem3OT9149Y9HNRce1 MUwASlJzGUv14o+RGgDOr6HcN6jeMDxSWVYOStKoUip3bxOJs3Ju9v4Ql88tOrZWccX0gb+E6ptX edls5eqVHyk6LunpXFG+8W9EBnJtNIZjio6rXqaWp3aGEPJd2Rv5dtFxqerAubtvB+yXZ5sxxm8R ck2y150JQElqLl8HnpGhfi0rB/cHDsrQx4eAfzRyUiSplcUOPglslnOrH+0v37q06NhaSQpfzrO9 AB9+R3m3zYuOS3o6Eb6ac3tvmFbuemnRcdXDVh1L30G+t/+ShPTiouNSVZJ2fADoyLXRGLMs2ihm HooegCTp/7yRbJdqfBT48zBlxpHtcpGFwBcbPC+S1LIOnDtlDyLvyrnZn8+bsfjKomNrNcs3f7Qf eCjHJp/RkYw5pei4pKeTxOWXA0/k2GQISZL3aubCla4qdUDINa4Q+Y3bf5vDgWd0bQvhg7k2Glk8 v7zkjqJj21gmACWpOYwBrshQ/0bgMzWU+yqQ5cyiLCsHJWlUKZdJkkr6eSDk2GylQvhwq207agbf P+GPKyF+Lc82A3z0gL6eVxYdm7Q+Q6uE816ldHC73YId7/jT4THyilzbhIuKjktVYTCZQbbLFf+z zST3/1cNYQJQkprDV4BnZqhfy9bfNwLvzNDHyQy/wlCSNOT3ofsoAj05N/vFq2cu+l3RsbWqmIYL gTTHJjs7YrygXPZ1lZpTIM116zsQSMIZRceVl9K5e06AWM652cdXxtRV2k3g4HLPTiFwVM7NLhvs CCYAJUkj8gbg3RnqnwrcM0yZTiDLLyI3Aec2dlokqXUddtY+W4RA3i+S/zmYrm677XeNNL88cA+E a3NtNLDXLR3dJxYdm7Q+Q9tQf55nm5H4X719kw8pOrY8pEtXzwVemHOz37i2vGR50bFlNO6AM3uy LE4oXLlMUglcTPWSxTxdfPVpix4uOr6RMAEoScUKwOUZ6t8CnF1DuS8DW2box1t/JWkjrFy9qg/Y Ks82I/ET15Rveqzo2FpdJU2nk+8qQIic3TtnypuLjk1an5Ck0+vQ6hcOPWPKs4uOLYveud17BcKH c252RUg6P1V0bDkY3zEYr5xantpZ9EBG6vcdkz9MiPvk3Oxgmgy27KIIE4CSVKwvk+0FYi2JuVdD pqXvpzP8CkNJ0pBSX9cugXhsvq2Ghbukiy8pOrZ2cHV58S3At3JutoOYXnrI3O7nFx1fvZTK3buV +iZ/qHdO98m9syfv57bn1tE/fcmvIP4w52afOVhJv9Kqz4NSec8tY8r/kPPNsJF4Qf/0G+4vOr6c vOFZybJzih7ESJT6unYJMczNveHAlQum3/inouMbqZb8zypJbWIv4OgM9WcDfximTCDb5SK/B85s 8LxIUuuKhEhyPtWjF/KSpsTjy+WcV62NYjFlFrA652a3Hkz54SHl3Z9TdHx5KvX17Fnqm/zTmHBj JJxP5NOE8P9u6eheMm3OlBcXPT7VJiVMh3wvD4rwtt8nk1suQXT0hV1jSFbPC/CinJtelqZja9mZ 00o+Mm12T5ajihru0DOmPDvScS2wSc5Nx0oMLfd8X5sJQEkqTpYz+e4AyjWUuwDI8kKk1MgJkaRW 1ztn8sHAa3Nu9msLZg4MFB1bO6meBchX6tD0SweTzusOLE95XtExZnVwuWenUt/kqyPx+kh43X8U iOwWYvzRAeW9ti56rBregpkDA4H47bzbDYSTps2Z/MGi46tZJDzyQHLBep/TmZvm/KvL1/+z6BDz FkL8aml298FFj6MWR5anjl9dSa+GuF3+E8H/tPolXCYAJakY5wFZXhzUcuvv3kCWLWgzgDsbOSmS 1MqOOGfXiZD76oBHQ+fgaUXH1o4q6ZjZwEN1aPrFSZL+vNTXtUvRMY5EqbznltNmd3+uksRbIuEd Gy4dt+tMVl3RyueEjSZp6Pg48FTe7YYYzivN6c77LL3clcskvX09XwLeV4fm/1ZJV7fb6r81OmPg sma/+OWIc3aduCxZdi2wZx2afzJN0k8UHWNWJgAlqfGmAMdnqD8XuLWGcv0Z+rh9qB9JUo2eemr8 aWR7c+c/BOLM/tNufLDo2NrR1eXr/xkiH6pT8ztEkhua/QXz2krlncdOmzP5xJgM/jEEPgyMqaVe JLzumWG5x4W0gPkzFt4FzKxD00mMfK63r+cMIqHoONenVN557O87ur9FiMfUo/0Q4nFtfklTJ4TL evt66pE8zewd5d02f2r5uB9GeGNdOgjhjAWnL/l70XFmZQJQkhovS2Lubqor84bzeWDbDP3UssJQ kjSkVH7VjhBPzrPNAL/jpS/8UtGxtbP+WQNXAgvq1PxECJdPm919QemTXc8oOtanUy6TlOZM7o3J xFtDDOcCW2xsGyHEj06bPbmWi8lUsPDS7T8LYWF9Wo+n9c7pvqZ05u653oCe1bRy9w4xmfiLEKnL NtYYuLJ/xuLvFB1nA3RA/Mq0OZO/emR56viiB7PGtPKUXTuSzusJ7FWfHsIflz3jkc8VHWceTABK UmOdC2S5IbCWX64nAydk6OOTwG2NnBRJanUx6fgsMC7PJiPh+P6D+itFx9buxnQkHwAerlf7IXBc XJXc3mxnaB19YdeYabN73n1L0v37GEM/xB0zhRnC16eVu15adFzasP6D+iuReBSwsk5dvD0Odv5u 2uyetxQdK0BvX8+7QsKNEKfUqYuH0sqYLL93t5wQw1FLk2XXF/7/PRJKfZM/FJJ0YSC8rE69pIT0 /d8/4Y/1+v/SUCYAJalxuoATM9T/NFDLwbNXZejjHqDlz7eQpEYqze7ZH3hrnm1GuHzezEW/LDq2 0eDy0xc+QAzHkfMNqevYNgauKPV1/2ranMn/VeQ2yVJ5zy17+yZ/5JEHkj+GEC8BXp5T05uShAVv P3vvTYuKTbWZP3PgVgKn17GLbUOIP+jt6/52qTwlr+fXRjlw7pQ9emf3/BLiN4DN6tRNJHBMO178 UYPdQ5LcPG129+cOO2ufjV41nFXv3O69eud0/zoSzgfqtxoxcva8GYuva3R89RJirOfPOUlqrCP7 cr/QK093AzuMsO59wAtrKHc28PEMY3wVcGNjp0XN5JKZPyt6CFLTC+FfuZv9zttx3MTHtvg98OJ8 ++C3RB4pOtZmEkNyzrwZC39Yr/anzZ48N4RQz6TIvwRuijGen6Rjrukv31D3r/N+5+04buLjW+wf YjwiEv4LGFvH2PrnTR84mFC/hOrRF3aNeeSBZFVe7cXIl+bPGvhA3eakSfX2dV8KvLPO3QxGuCwS v7pg5uJf17Ojcpnk1jD5DTGEY4EDoO6J9rnzZg7UcjRPQ/T29fRDLOIYn4eBz6VpcsmC8sK/1rOj 0tyufWKanEgjvr6RRVtuk+5z0TFLVtdcpcnza97WJEmNcRYjT/4BHFRDmd3Ilvw7B5N/krRRJj22 xYkx5+QfQIy8qujYmk2I6Tfr2f4ucfHMW0L3y6m+sKyvyG6BcHFMBr/c29f9E0K8Jsbwq13SgdvL ZdI8ujikvPtzVoeO15LwhvBYOBDYoiELDyOlA/umfGkBC31HqcmFSZ1Hs3TwJRG669hNZ4AjA+HI 3r7uuwJcBuFHD6abDFxXvm4wa+Ol8s5j6Rzfk1bCvreEcATwggZN33dekQ7MmtegzprcM4E5SZKW e/u6fxThm0nKj/vLA//Io/Fpc6a8OInxbSnp+2Jat62+63oyxMrhFx3z25qTf63ABKAk1d/OwKkZ 6p8PDNRQbn6GPu4lW/JQkkad0tw9nxvTyun13TmqRimXSUvl5e8i2eRXEV7ZoG7HAPsSw74BuCXp fqzUx8I0ckeScC/Ee9OQ/K0zVh5Nw9gVYzo6lq+pmFZWTqoMVsaRdG4VY7p1DMm2gfgiYGcILx8k bhegiKfn5xbMMvnXCvpPuuGp0tw9DyAdHCDb5XG1enGE2RBnPytZvrS3b/L1kfDbQLg7jeHujjh4 95hxE5781qm/emzdFaTvKO+2ecK4SUlHZceQJi9KQ9wxQFeEvUnZJDR2U/1tq8aNfWf5lHyS9W2k A9g3wL4xgd6+7tuI/Iwk/j5NO/5A5K4NrhCMhEPO6H7eYIWdQsJOKbErxOSNxHS7CITGnZxQIcYj +su//WPRE5o3E4CSVH9Zbhf8G7Vd6HEG2VYYlho6I5LUBmI6+GlgUtHjUH76y7cuLZW73k6SXEdt R2/kbfMIbwmBt1R3kgVCjFRIIA6yKl1nwVTSAUQIYZ18STFJ6QiXzJ8xcBIzC+leI9A//Yb7p/VN 3j8Qfgg8q3E9x0kQ3hzgzRBJQiSGhFWrV9I7pxv6WAE8RfV8twnVOinEQAzFHaIZ4b4xacf+8075 9ZMFDaGVvJzAy4mBJKQQoLevexB4EsITkXR59TscmwR4BnPYdBA6CRDjmoRf47+XhcDx/TMXf7vo yasHLwGRpPqaBeyUoX4tW393Bk7L0MfngSWNnBRJanXT+rqmAE11q6vy0V9e8ueQdL46Em8veiyt JEa+tEs6cFQ9z/5TfcyfufjGCFOBvxc9lrWMB7bg/5J/TeGuMQmvuaL8m/uKHkgL6wS2gLjd0M29 Lw+wffVzzbBALZzZP2PgS0WPol5MAEpS/bwcKGeo/yWglsOS+zP0cT/wkcZNiSS1hxCSk6n/AfMq SP/0G+4fm8bX4BtkNQpnzp858MG8zi9U482fOXBrDMlrgT8XPZYmdVvakb72iukDfyl6IA2yGsLS ogfRWOFr82Ysml70KOrJBKAk1U+WxNzfgVpuo5sFZDkM162/krSRSufuOYHIW4seh+rr8vKSh8LY 9A0h8ouix9LElscYD5s3c9HprvxrffNnLLwrTQZf4+rXdUQWV9Ixr1tw+pJmWiFZb8vTJO4PLCt6 IA0Rw2fnzVj0vnb/PmYCUJLqYwbVFYAjdUgNZXYi2wrDLwM3NHBOJKktVJanr6S5tqWpTvpPXfI4 cfmbYuTzeNvLuu4IKXvPn7X48qIHovwsmH7jn5L0qZ4YuLLosTSJr06KE199dfn6fxY9kEZbMH3g FwHaPQkYIZwyb9aik9o9+QcmACWpHnYA+jLU/zrUtNpgXoY+HqC2FYaSpHUklcqzix6DGqe/fOuq +bMGPhJimAY8VvR4mkAk8sWVadrVXx64qejBKH/95VuXzp8xcAghnACsKno8BVkRYnjfvJkD77+k fN2KogdTlP6ZAz9PE/4LeLTosdTB6gDvnTdz0aeKHkijmACUpPzNz1D3EeDoGsqdAuySoZ9DcCWD JI1IIIwvegxqvP5Zi66OKV1EFhc9lqKEwC2E+Pp5swY+dG15yfKix6P6mjdj0flpkrw2wt1Fj6XB 7kzTdO/+WYsuLnogzWDB9IFfdKRhD+DOoseSn/DHFPbunzlwSdEjaSQTgJKUr5OB3TLUPxQYHKbM DsAnM/RxMXBdQ2dFkqQ2ML88cM9DceKeQyujHit6PA30MMQTH6xM3H3ejMXXFT0YNc6C6Qt/s2k6 8RWxurul3VfCPQXMWLb5o69cUF7y26IH00yuLC/6w2C6eg+IPyx6LNnF/1k1bsyrFswcGCh6JI3W BNcsS1Lb2B74dIb6lwG1/FDNsvX3QeCYBs6JJElt5brydYPA+QeU97oy6Vh1ZojhPbTtwoqwFOLn wtj00/2nLnm86NGoGENbYGdNmzPlshArX4Dw5qLHVAffjykfml8euKfogTSra8o3PVa6qvRf3Hnv STGGPqDVVsM/GGP88Gg+t9QEoCTlJ8utv48A76uh3EeB3TP0cwhQaeSkSJLUjoYuBXhfae7ki2Ia ysC+QCh6XDl5MMAXBjv54tWnDTxc9GDUHObPWHgX8JbSnMlvJ4bpEbqLHlNWIfKbmIQz5s1Y9N2i x9IK+g/qrwDnlMpTvkeSXtIiz4FVwHlhbDp33ih/I8MEoCTl4yPA5Az1DwdWDlNmO+CcDH1cCvy0 sdMiSVJ765++eBHwXweUJ7+ioyN8lMihwNiixzUikUUxxAuTSWMu7z/phqeKHo6aU/+Mxd8BvlOa PflNMYTTgKlFj2kEfkrkzP5ZAz8peiCtqL+88Lap5al7bdWx7P0xMhPYpugxrU8gXkOafqy//Ns/ Fj2WZmACUJKyex7w2Qz1rwJ+UEO5KzP08Ri1rTCUJEkjcHV58S3AkaW5e56epoMfCoRDIW5X9LiG EwK3pJHvQrxq/qzFNxY9HrWO/lmLfwT8qHdu915EjibyDuAZRY9rAx4ncE2I4cL+mYtuKHowrW7o OIQvlco7Xxo7NjmRyMeATYseF9XdTvNjEs6ZN31g1F7atD4mACUpuyxbf58Ejqyh3AeBKRn6OYLq 8ndJklRH/dNvuB/4BJHTDjxjypSkEg+KIfYGeH7RYxuyOsDPU7g2CeHa/hmL7i16QGpt86YPXA9c v995O46b+Ojm+5JwMDF5G8RJRY8NWA58J4Zw5fJnPPL975/wx+F23Ggj9ZdvXQrMKX2y67y4Kjmc wPuJmS5FHKl7CFzSGbjkiukDfyl6XpqRCUBJyuY4YI8M9d9F9caxDdkWOD9DH/2A55pIUm7iIxCW FD2K0SaNtNZZdIG4gIW/AX5D5OTSGZO7SZN9InEfYC/g2Q0ayZ8DDETCojSGgcHxnYu/c8qvnyx6 erL4w983jc9KluX2fzAJ/LnomNrBUHLt28C331bu2mR8CHvHhL2IYW+qvy83YnXYskBcFGP4VST8 elWs/PLa8pLlRc/NaDB0UdAFwAUH9nV3J5GDCbweeCX1uShpZYBfxsAPQiX5fn954W1Fz0GzCzHG oscgSbk5su91jexuG+BvjPzA72uAA2oo9ytg7xH28STVFxie46OaXDLzZ0UPQWp6IbTLPQ8q0rQ5 U16cpJU9IuHFJOxAZAdgB0aWGHwswJ8i4b4Y431Jwr2k4Y/EuKS/PPCPomOVSleVOtI77t01kHQR 4w4xYYckskOEFwLPGkGTjwL3QLgX0nsI3BMCNz44OOm3Q1tTR53evp5+iL05Nff4vJkDm+fR0AFn 9jyzoxJfG9OwRwhxR2DNY8JGNPMwcFuE2wPxdkLHbRPGP/XrSz9287JcJzGjZs+vuQJQkkbuSkae /HuK6uq/4RzDyJN/AIdh8k+SpKYzdKPqXet+vnTunhM6nojPXs3q8UnSObES2SyhMh6SSRGeCEm6 MsSOJwmVpR2VzpXLJ3Q83Oor+tT+hm6PvXHo8W+OOGfXiStWjN86rVTGJUnnxBgqm8Y0GRdgM0iX hiRZSQyPk/JUSrpi9YSxD/qcbx1Xn7boYWDB0KMqEkpn7PmcJMbN0hg3IcRnpKTjQ5pMjEl8lJg+ CcnSmAwunTA49tFvlhc+UXQc7cAEoCSNzHuB12So/26qq/M25NnAlzL0sQC3/kqS1FKGbt+9r+hx SI0ytIrLsyhHk0Ds54b7gfuLHspoUo992JLU7p4JXJSh/v+jtotDLmfkKwyXUU0ySpIkSZJGOROA krTxrgQ6Rlh3JdVtucM5EshyoOF7gaWNnRZJkiRJUjMyAShJG+fdwBsy1H8v8PgwZbYk2wrD7wFX NXheJEmSJElNygSgJNXumcBXMtT/AfCtGspdAYwZYR8rgcMbPC+SJEmSpCZmAlCSancZI0/MVagt MXcY8KYMY6xlhaEkSZIkaRQxAShJtSkB+2aofzTwyDBlNgMuztDHj6hthaEkSZIkaRQxAShJw5sE XJKh/i+Ar9VQ7lJg/Aj7GAQObey0SJIkSZJagQlASRrepcAmI6ybAgfXUK4EvD3DGN8PPNzgeZEk SZIktQATgJK0YdOAd2Sofxzwj2HKTAK+kaGPn5JthaIkSZIkqY2ZAJSkp5c1MfdL4KIayn0TmDDC PmpdYShJkiRJGqVMAErS0/sGMDFD/VoSc/9Ntq2/xwIPNXJSJEmSJEmtxQSgJK3f/sCBGeofD/x9 mDLjybbC8NfAVxo8L5IkSZKkFmMCUJL+03iq23JHagD4Qg3lLgaekaGfQxo5KZIkSZKk1mQCUJL+ U9bE3EE1lHkLcFiGPk4A/trISZEkSZIktSYTgJL077Im5j4G3DdMmbHAFRn6WAic39hpkSRJkiS1 KhOAkvQvncC3MtS/Cfh0DeW+BmyeoZ9pjZsSSZIkSVKrMwEoSf/yFWDLDPVrScy9CTg8Qx8nAfc3 clIkSZIkSa3NBKAkVU0FjsxQ/zTgnmHKdJDtcpHfAp9t6KxIkiRJklqeCUBJqibmrspQ/2bgrBrK XQhslaGfWi4XkSRJkiTp35gAlCT4MtkSc6UayrwaOCpDH58A7m7kpEiSJEmS2oMJQEmj3WuA92Wo Pwv4wzBlAtCfoY/fA59s8LxIkiRJktqECUBJo90VGer+AeirodwXgWdn6Ke3oTMiSZIkSWorJgAl jWbnAdtmqF9LYm4P4LgMfZQZfoWhJEmSJElPywSgpNGqBzg+Q/1PUt2aO5wsl4vcDsxu5KRIkiRJ ktqPCUBJo1WWxNwfqV7KMZzPA8/P0I9bfyVJkiRJmZkAlDQanQtsl6F+LYm5HuCEDH3MAW5r5KRI kiRJktqTCUBJo00XcGKG+p8CfldDuXkZ+vgjMLORkyJJkiRJal8mACWNNv0Z6v4FOKWGcmfj1l9J kiRJUpMwAShpNPkk8MIM9afVUGZX4OMZ+vgMta0wlCRJkiSpJiYAJY0Wu1Lb6r2ncz4wUEO5LCsM /wR8tJGTIkmSJElqfyYAJY0WWW79vZ/aLvSYC+yUoR+3/kqSJEmScmcCUNJoMBt4SYb6B9dQZmfg 9Ax9fBZY3MhJkSRJkiSNDiYAJbW7l5DtRt0LgV/XUG5Bhj7+CpzUyEmRJEmSJI0enUUPQJLqLEti 7p/AcTWUm0W2rb+lhs6IJEmSpPYS4zXA3fk0FlYUHY7yZwJQUjubDrw8Q/2DgDhMmZ2AcoY+vgz8 prHTIknKIsbhfjRIktRw38y1tSx7qNSU3AIsqV3tBMzJUP9i4Oc1lMty6+8DwAcbOSmSJEmSpNHH BKCkdpUlMfcgcEwN5U4Fds3Qz8FA2shJkSRJkiSNPiYAJbWjj5MtMXcYUBmmzA7AWRn6+CK1rTCU JEmSJCkTE4CS2s1zgbMz1L8c+HEN5a7K0MdtwIcaOSmSJEmSpNHLS0AktZtTM9R9HHhPDeVOBLoy 9LMJ8CNg88ZNS10MUl0pGYoeSM5CG8a2JqZA9ezJXwKXAU8UPTBJkiRJ9WcCUFK72TdD3cOBlcOU 2Q44N+MYtx96SEU5hOot2R8Aril6MJIkSZLqyy3AktrN1iOsdyXwvRrKZdn6KzWTbYGrgQOKHogk SZKk+jIBKKndDLeCb32eoLatv28GeooOUMrZPOBZRQ9CkiRJUv2YAJTUbm4dQZ13AU/VUO7wooOT 6iDBS2kkSZKktmYCUFK7OX8jy3976FGLlxUdnFQnbyl6AJIkSZLqxwSgpHazgOoNu7V4iI1b1Te+ 6OCkOnlO0QOQJEmSVD8mACW1o/2Bnw5T5h/Aq4FlG9Hu/UUHJtXJ8qIHIEmSJKl+TABKakergTcA HwSWAOla//ZX4LPAy4E7NrLdHxYdmFQnvyt6AJIkSZLqp7PoAUhSHV0w9NgB2BZ4nGrSb3CE7V0M fBIYW3RgUs6+VPQAJEmSJNWPKwAljQb3AL8GbmHkyT+AJ4Ajig5GytkC4OdFD0KSJElS/ZgAlKSN cxVwXNGDkHLyI6BU9CAkSZIk1ZcJQEnaeF8GdgMuA/5e9GCkEbgN+DDwZv79jExJkiRJbcgzACVp ZH5HdTvwjlQvFOkEKgWPKQ6NYzS8uTNmKM5Y9EDqJA7FNybHNtOhx+NUt8Q/UnSQkiRJkhojxNiu r50kSZIkSZIkjYZVIpIkSZIkSdKoZQJQkiRJkiRJamMmACVJkiRJkqQ2ZgJQkiRJkiRJamMmACVJ kiRJkqQ2ZgJQkiRJkiRJamMmACVJkiRJkqQ2ZgJQkiRJkiRJamMmACVJkiRJkqQ2ZgJQkiRJkiRJ amMmACVJkiRJkqQ2ZgJQkiRJkiRJamMmACVJkiRJkqQ2ZgJQkiRJkiRJamMmACVJkiRJkqQ2ZgJQ kiRJkiRJamMmACVJkiRJkqQ2ZgJQkiRJkiRJamMmACVJkiRJkqQ2ZgJQkiRJkiRJamMmACVJkiRJ kqQ2ZgJQkiRJkiRJamMmACVJkiRJkqQ2ZgJQkiRJkiRJamMmACVJkiRJkqQ2ZgJQkiRJkiRJamMm ACVJkiRJkqQ2ZgJQkiRJkiRJamMmACVJkiRJkqQ2ZgJQkiRJkiRJamMmACVJkiRJkqQ2ZgJQkiRJ kiRJamP/H7ctl6X/I/D5AAAAJXRFWHRkYXRlOmNyZWF0ZQAyMDIxLTAxLTIyVDExOjQ0OjE2KzAw OjAwyRvpYQAAACV0RVh0ZGF0ZTptb2RpZnkAMjAyMS0wMS0yMlQxMTo0NDoxNiswMDowMLhGUd0A AAAZdEVYdFNvZnR3YXJlAEFkb2JlIEltYWdlUmVhZHlxyWU8AAAAAElFTkSuQmCC"/>
</svg>